{
  "data": [
    {
      "user": {
        "firstName": "Константин",
        "lastName": "Константинопольский",
        "email": "test@test.ru"
      },
      "node": {
        "name": "Folder 1",
        "id": "665eba1f-8011-4811-80da-c552df23d3a4",
        "isFolder": true,
        "size": 123,
        "length": 20,
        "createdAt": "2019-02-01T03:45:27+00:00",
        "folderId": null,
        "author": {
          "fullName": "Иванов Иван"
        },
        "comment": "http://my-globaldrive.test/fm/folder/665eba1f-8011-4811-80da-c552df23d3a4 \n All sea-dogs endure clear, shiny gibbets. All sea-dogs endure clear, shiny gibbets. All sea-dogs endure clear, shiny gibbets. All sea-dogs endure clear, shiny gibbets. "
      },
      "action": "delete"
    },
    {
      "user": {
        "firstName": "Константин",
        "lastName": "Константинопольский",
        "email": "test@test.ru"
      },
      "node": {
        "name": "Folder 1",
        "id": "665eba1f-8011-4811-80da-c552df23d3a4",
        "isFolder": true,
        "size": 123,
        "length": 20,
        "createdAt": "2019-02-01T03:45:27+00:00",
        "folderId": null,
        "author": {
          "fullName": "Иванов Иван"
        },
        "comment": "http://my-globaldrive.test/fm/folder/665eba1f-8011-4811-80da-c552df23d3a4 \n All sea-dogs endure clear, shiny gibbets. All sea-dogs endure clear, shiny gibbets. All sea-dogs endure clear, shiny gibbets. All sea-dogs endure clear, shiny gibbets. "
      },
      "action": "updateComment"
    },
    {
      "user": {
        "firstName": "Константин",
        "lastName": "Константинопольский",
        "email": "test@test.ru"
      },
      "node": {
        "name": "Folder 1",
        "id": "665eba1f-8011-4811-80da-c552df23d3a4",
        "isFolder": true,
        "size": 123,
        "length": 20,
        "createdAt": "2019-02-01T03:45:27+00:00",
        "folderId": null,
        "author": {
          "fullName": "Иванов Иван"
        },
        "comment": "http://my-globaldrive.test/fm/folder/665eba1f-8011-4811-80da-c552df23d3a4 \n All sea-dogs endure clear, shiny gibbets. All sea-dogs endure clear, shiny gibbets. All sea-dogs endure clear, shiny gibbets. All sea-dogs endure clear, shiny gibbets. "
      },
      "action": "updateComment"
    },
    {
      "user": {
        "firstName": "Константин",
        "lastName": "Константинопольский",
        "email": "test@test.ru"
      },
      "node": {
        "name": "Folder 1",
        "id": "665eba1f-8011-4811-80da-c552df23d3a4",
        "isFolder": true,
        "size": 123,
        "length": 20,
        "createdAt": "2019-02-01T03:45:27+00:00",
        "folderId": null,
        "author": {
          "fullName": "Иванов Иван"
        },
        "comment": "http://my-globaldrive.test/fm/folder/665eba1f-8011-4811-80da-c552df23d3a4 \n All sea-dogs endure clear, shiny gibbets. All sea-dogs endure clear, shiny gibbets. All sea-dogs endure clear, shiny gibbets. All sea-dogs endure clear, shiny gibbets. "
      },
      "action": "updateComment"
    },
    {
      "user": {
        "firstName": "Константин",
        "lastName": "Константинопольский",
        "email": "test@test.ru"
      },
      "node": {
        "name": "Folder 1",
        "id": "665eba1f-8011-4811-80da-c552df23d3a4",
        "isFolder": true,
        "size": 123,
        "length": 20,
        "createdAt": "2019-02-01T03:45:27+00:00",
        "folderId": null,
        "author": {
          "fullName": "Иванов Иван"
        },
        "comment": "http://my-globaldrive.test/fm/folder/665eba1f-8011-4811-80da-c552df23d3a4 \n All sea-dogs endure clear, shiny gibbets. All sea-dogs endure clear, shiny gibbets. All sea-dogs endure clear, shiny gibbets. All sea-dogs endure clear, shiny gibbets. "
      },
      "action": "updateComment"
    },
    {
      "user": {
        "firstName": "Константин",
        "lastName": "Константинопольский",
        "email": "test@test.ru"
      },
      "node": {
        "name": "Folder 1",
        "id": "665eba1f-8011-4811-80da-c552df23d3a4",
        "isFolder": true,
        "size": 123,
        "length": 20,
        "createdAt": "2019-02-01T03:45:27+00:00",
        "folderId": null,
        "author": {
          "fullName": "Иванов Иван"
        },
        "comment": "http://my-globaldrive.test/fm/folder/665eba1f-8011-4811-80da-c552df23d3a4 \n All sea-dogs endure clear, shiny gibbets. All sea-dogs endure clear, shiny gibbets. All sea-dogs endure clear, shiny gibbets. All sea-dogs endure clear, shiny gibbets. "
      },
      "action": "updateComment"
    },
    {
      "user": {
        "firstName": "Константин",
        "lastName": "Константинопольский",
        "email": "test@test.ru"
      },
      "node": {
        "name": "Folder 1",
        "id": "665eba1f-8011-4811-80da-c552df23d3a4",
        "isFolder": true,
        "size": 123,
        "length": 20,
        "createdAt": "2019-02-01T03:45:27+00:00",
        "folderId": null,
        "author": {
          "fullName": "Иванов Иван"
        },
        "comment": "http://my-globaldrive.test/fm/folder/665eba1f-8011-4811-80da-c552df23d3a4 \n All sea-dogs endure clear, shiny gibbets. All sea-dogs endure clear, shiny gibbets. All sea-dogs endure clear, shiny gibbets. All sea-dogs endure clear, shiny gibbets. "
      },
      "action": "updateComment"
    },
    {
      "user": {
        "firstName": "Константин",
        "lastName": "Константинопольский",
        "email": "test@test.ru"
      },
      "node": {
        "name": "Folder 1",
        "id": "665eba1f-8011-4811-80da-c552df23d3a4",
        "isFolder": true,
        "size": 123,
        "length": 20,
        "createdAt": "2019-02-01T03:45:27+00:00",
        "folderId": null,
        "author": {
          "fullName": "Иванов Иван"
        },
        "comment": "http://my-globaldrive.test/fm/folder/665eba1f-8011-4811-80da-c552df23d3a4 \n All sea-dogs endure clear, shiny gibbets. All sea-dogs endure clear, shiny gibbets. All sea-dogs endure clear, shiny gibbets. All sea-dogs endure clear, shiny gibbets. "
      },
      "action": "updateComment"
    },
    {
      "user": {
        "firstName": "Константин",
        "lastName": "Константинопольский",
        "email": "test@test.ru"
      },
      "node": {
        "name": "Folder 1",
        "id": "665eba1f-8011-4811-80da-c552df23d3a4",
        "isFolder": true,
        "size": 123,
        "length": 20,
        "createdAt": "2019-02-01T03:45:27+00:00",
        "folderId": null,
        "author": {
          "fullName": "Иванов Иван"
        },
        "comment": "http://my-globaldrive.test/fm/folder/665eba1f-8011-4811-80da-c552df23d3a4 \n All sea-dogs endure clear, shiny gibbets. All sea-dogs endure clear, shiny gibbets. All sea-dogs endure clear, shiny gibbets. All sea-dogs endure clear, shiny gibbets. "
      },
      "action": "updateComment"
    },
    {
      "user": {
        "firstName": "Константин",
        "lastName": "Константинопольский",
        "email": "test@test.ru"
      },
      "node": {
        "name": "Folder 1",
        "id": "665eba1f-8011-4811-80da-c552df23d3a4",
        "isFolder": true,
        "size": 123,
        "length": 20,
        "createdAt": "2019-02-01T03:45:27+00:00",
        "folderId": null,
        "author": {
          "fullName": "Иванов Иван"
        },
        "comment": "http://my-globaldrive.test/fm/folder/665eba1f-8011-4811-80da-c552df23d3a4 \n All sea-dogs endure clear, shiny gibbets. All sea-dogs endure clear, shiny gibbets. All sea-dogs endure clear, shiny gibbets. All sea-dogs endure clear, shiny gibbets. "
      },
      "action": "updateComment"
    },
    {
      "user": {
        "firstName": "Константин",
        "lastName": "Константинопольский",
        "email": "test@test.ru"
      },
      "node": {
        "name": "Folder 1",
        "id": "665eba1f-8011-4811-80da-c552df23d3a4",
        "isFolder": true,
        "size": 123,
        "length": 20,
        "createdAt": "2019-02-01T03:45:27+00:00",
        "folderId": null,
        "author": {
          "fullName": "Иванов Иван"
        },
        "comment": "http://my-globaldrive.test/fm/folder/665eba1f-8011-4811-80da-c552df23d3a4 \n All sea-dogs endure clear, shiny gibbets. All sea-dogs endure clear, shiny gibbets. All sea-dogs endure clear, shiny gibbets. All sea-dogs endure clear, shiny gibbets. "
      },
      "action": "updateComment"
    },
    {
      "user": {
        "firstName": "Константин",
        "lastName": "Константинопольский",
        "email": "test@test.ru"
      },
      "node": {
        "name": "Folder 1",
        "id": "665eba1f-8011-4811-80da-c552df23d3a4",
        "isFolder": true,
        "size": 123,
        "length": 20,
        "createdAt": "2019-02-01T03:45:27+00:00",
        "folderId": null,
        "author": {
          "fullName": "Иванов Иван"
        },
        "comment": "http://my-globaldrive.test/fm/folder/665eba1f-8011-4811-80da-c552df23d3a4 \n All sea-dogs endure clear, shiny gibbets. All sea-dogs endure clear, shiny gibbets. All sea-dogs endure clear, shiny gibbets. All sea-dogs endure clear, shiny gibbets. "
      },
      "action": "updateComment"
    },
    {
      "user": {
        "firstName": "Константин",
        "lastName": "Константинопольский",
        "email": "test@test.ru"
      },
      "node": {
        "name": "Folder 1",
        "id": "665eba1f-8011-4811-80da-c552df23d3a4",
        "isFolder": true,
        "size": 123,
        "length": 20,
        "createdAt": "2019-02-01T03:45:27+00:00",
        "folderId": null,
        "author": {
          "fullName": "Иванов Иван"
        },
        "comment": "http://my-globaldrive.test/fm/folder/665eba1f-8011-4811-80da-c552df23d3a4 \n All sea-dogs endure clear, shiny gibbets. All sea-dogs endure clear, shiny gibbets. All sea-dogs endure clear, shiny gibbets. All sea-dogs endure clear, shiny gibbets. "
      },
      "action": "updateComment"
    },
    {
      "user": {
        "firstName": "Константин",
        "lastName": "Константинопольский",
        "email": "test@test.ru"
      },
      "node": {
        "name": "Folder 1",
        "id": "665eba1f-8011-4811-80da-c552df23d3a4",
        "isFolder": true,
        "size": 123,
        "length": 20,
        "createdAt": "2019-02-01T03:45:27+00:00",
        "folderId": null,
        "author": {
          "fullName": "Иванов Иван"
        },
        "comment": "http://my-globaldrive.test/fm/folder/665eba1f-8011-4811-80da-c552df23d3a4 \n All sea-dogs endure clear, shiny gibbets. All sea-dogs endure clear, shiny gibbets. All sea-dogs endure clear, shiny gibbets. All sea-dogs endure clear, shiny gibbets. "
      },
      "action": "updateComment"
    },
    {
      "user": {
        "firstName": "Константин",
        "lastName": "Константинопольский",
        "email": "test@test.ru"
      },
      "node": {
        "name": "Folder 1",
        "id": "665eba1f-8011-4811-80da-c552df23d3a4",
        "isFolder": true,
        "size": 123,
        "length": 20,
        "createdAt": "2019-02-01T03:45:27+00:00",
        "folderId": null,
        "author": {
          "fullName": "Иванов Иван"
        },
        "comment": "http://my-globaldrive.test/fm/folder/665eba1f-8011-4811-80da-c552df23d3a4 \n All sea-dogs endure clear, shiny gibbets. All sea-dogs endure clear, shiny gibbets. All sea-dogs endure clear, shiny gibbets. All sea-dogs endure clear, shiny gibbets. "
      },
      "action": "updateComment"
    },
    {
      "user": {
        "firstName": "Константин",
        "lastName": "Константинопольский",
        "email": "test@test.ru"
      },
      "node": {
        "name": "Folder 1",
        "id": "665eba1f-8011-4811-80da-c552df23d3a4",
        "isFolder": true,
        "size": 123,
        "length": 20,
        "createdAt": "2019-02-01T03:45:27+00:00",
        "folderId": null,
        "author": {
          "fullName": "Иванов Иван"
        },
        "comment": "http://my-globaldrive.test/fm/folder/665eba1f-8011-4811-80da-c552df23d3a4 \n All sea-dogs endure clear, shiny gibbets. All sea-dogs endure clear, shiny gibbets. All sea-dogs endure clear, shiny gibbets. All sea-dogs endure clear, shiny gibbets. "
      },
      "action": "updateComment"
    },
    {
      "user": {
        "firstName": "Константин",
        "lastName": "Константинопольский",
        "email": "test@test.ru"
      },
      "node": {
        "name": "Folder 1",
        "id": "665eba1f-8011-4811-80da-c552df23d3a4",
        "isFolder": true,
        "size": 123,
        "length": 20,
        "createdAt": "2019-02-01T03:45:27+00:00",
        "folderId": null,
        "author": {
          "fullName": "Иванов Иван"
        },
        "comment": "http://my-globaldrive.test/fm/folder/665eba1f-8011-4811-80da-c552df23d3a4 \n All sea-dogs endure clear, shiny gibbets. All sea-dogs endure clear, shiny gibbets. All sea-dogs endure clear, shiny gibbets. All sea-dogs endure clear, shiny gibbets. "
      },
      "action": "updateComment"
    },
    {
      "user": {
        "firstName": "Константин",
        "lastName": "Константинопольский",
        "email": "test@test.ru"
      },
      "node": {
        "name": "Folder 1",
        "id": "665eba1f-8011-4811-80da-c552df23d3a4",
        "isFolder": true,
        "size": 123,
        "length": 20,
        "createdAt": "2019-02-01T03:45:27+00:00",
        "folderId": null,
        "author": {
          "fullName": "Иванов Иван"
        },
        "comment": "http://my-globaldrive.test/fm/folder/665eba1f-8011-4811-80da-c552df23d3a4 \n All sea-dogs endure clear, shiny gibbets. All sea-dogs endure clear, shiny gibbets. All sea-dogs endure clear, shiny gibbets. All sea-dogs endure clear, shiny gibbets. "
      },
      "action": "updateComment"
    },
    {
      "user": {
        "firstName": "Константин",
        "lastName": "Константинопольский",
        "email": "test@test.ru"
      },
      "node": {
        "name": "Folder 1",
        "id": "665eba1f-8011-4811-80da-c552df23d3a4",
        "isFolder": true,
        "size": 123,
        "length": 20,
        "createdAt": "2019-02-01T03:45:27+00:00",
        "folderId": null,
        "author": {
          "fullName": "Иванов Иван"
        },
        "comment": "http://my-globaldrive.test/fm/folder/665eba1f-8011-4811-80da-c552df23d3a4 \n All sea-dogs endure clear, shiny gibbets. All sea-dogs endure clear, shiny gibbets. All sea-dogs endure clear, shiny gibbets. All sea-dogs endure clear, shiny gibbets. "
      },
      "action": "updateComment"
    },
    {
      "user": {
        "firstName": "Константин",
        "lastName": "Константинопольский",
        "email": "test@test.ru"
      },
      "node": {
        "name": "Folder 1",
        "id": "665eba1f-8011-4811-80da-c552df23d3a4",
        "isFolder": true,
        "size": 123,
        "length": 20,
        "createdAt": "2019-02-01T03:45:27+00:00",
        "folderId": null,
        "author": {
          "fullName": "Иванов Иван"
        },
        "comment": "http://my-globaldrive.test/fm/folder/665eba1f-8011-4811-80da-c552df23d3a4 \n All sea-dogs endure clear, shiny gibbets. All sea-dogs endure clear, shiny gibbets. All sea-dogs endure clear, shiny gibbets. All sea-dogs endure clear, shiny gibbets. "
      },
      "action": "updateComment"
    },
    {
      "user": {
        "firstName": "Константин",
        "lastName": "Константинопольский",
        "email": "test@test.ru"
      },
      "node": {
        "name": "Folder 1",
        "id": "665eba1f-8011-4811-80da-c552df23d3a4",
        "isFolder": true,
        "size": 123,
        "length": 20,
        "createdAt": "2019-02-01T03:45:27+00:00",
        "folderId": null,
        "author": {
          "fullName": "Иванов Иван"
        },
        "comment": "http://my-globaldrive.test/fm/folder/665eba1f-8011-4811-80da-c552df23d3a4 \n All sea-dogs endure clear, shiny gibbets. All sea-dogs endure clear, shiny gibbets. All sea-dogs endure clear, shiny gibbets. All sea-dogs endure clear, shiny gibbets. "
      },
      "action": "updateComment"
    },
    {
      "user": {
        "firstName": "Константин",
        "lastName": "Константинопольский",
        "email": "test@test.ru"
      },
      "node": {
        "name": "Folder 1",
        "id": "665eba1f-8011-4811-80da-c552df23d3a4",
        "isFolder": true,
        "size": 123,
        "length": 20,
        "createdAt": "2019-02-01T03:45:27+00:00",
        "folderId": null,
        "author": {
          "fullName": "Иванов Иван"
        },
        "comment": "http://my-globaldrive.test/fm/folder/665eba1f-8011-4811-80da-c552df23d3a4 \n All sea-dogs endure clear, shiny gibbets. All sea-dogs endure clear, shiny gibbets. All sea-dogs endure clear, shiny gibbets. All sea-dogs endure clear, shiny gibbets. "
      },
      "action": "updateComment"
    }
  ],
  "meta": {
    "current_page": 1,
    "from": 1,
    "last_page": 100,
    "per_page": 50,
    "to": 50,
    "total": 5000
  }
}
